<!-- Generated by IcoMoon.io -->
<svg version="1.1" xmlns="http://www.w3.org/2000/svg" width="24" height="24" viewBox="0 0 24 24">
<title>brush</title>
<path fill="#fff" d="M20.719 4.641c0.375 0.375 0.375 1.031 0 1.406l-8.953 8.953-2.766-2.766 8.953-8.953c0.375-0.375 1.031-0.375 1.406 0zM6.984 14.016c1.641 0 3 1.359 3 3 0 2.203-1.781 3.984-3.984 3.984-1.5 0-3.047-0.797-3.984-2.016 0.844 0 1.969-0.656 1.969-1.969 0-1.641 1.359-3 3-3z"></path>
</svg>
