<!-- Generated by IcoMoon.io -->
<svg version="1.1" xmlns="http://www.w3.org/2000/svg" width="24" height="24" viewBox="0 0 24 24">
<title>fiber_smart_record</title>
<path fill="#fff" d="M17.016 4.266c3.469 0.891 6 3.984 6 7.734s-2.531 6.844-6 7.734v-2.063c2.344-0.797 3.984-3.047 3.984-5.672s-1.641-4.875-3.984-5.672v-2.063zM0.984 12c0-4.406 3.609-8.016 8.016-8.016s8.016 3.609 8.016 8.016-3.609 8.016-8.016 8.016-8.016-3.609-8.016-8.016z"></path>
</svg>
