<!-- Generated by IcoMoon.io -->
<svg version="1.1" xmlns="http://www.w3.org/2000/svg" width="24" height="24" viewBox="0 0 24 24">
<title>radio_button_checked</title>
<path fill="#fff" d="M12 20.016c4.406 0 8.016-3.609 8.016-8.016s-3.609-8.016-8.016-8.016-8.016 3.609-8.016 8.016 3.609 8.016 8.016 8.016zM12 2.016c5.531 0 9.984 4.453 9.984 9.984s-4.453 9.984-9.984 9.984-9.984-4.453-9.984-9.984 4.453-9.984 9.984-9.984zM12 6.984c2.766 0 5.016 2.25 5.016 5.016s-2.25 5.016-5.016 5.016-5.016-2.25-5.016-5.016 2.25-5.016 5.016-5.016z"></path>
</svg>
