<!-- Generated by IcoMoon.io -->
<svg version="1.1" xmlns="http://www.w3.org/2000/svg" width="24" height="24" viewBox="0 0 24 24">
<title>crop_square</title>
<path fill="#fff" d="M18 18v-12h-12v12h12zM18 3.984c1.078 0 2.016 0.938 2.016 2.016v12c0 1.078-0.938 2.016-2.016 2.016h-12c-1.078 0-2.016-0.938-2.016-2.016v-12c0-1.078 0.938-2.016 2.016-2.016h12z"></path>
</svg>
