<!-- Generated by IcoMoon.io -->
<svg version="1.1" xmlns="http://www.w3.org/2000/svg" width="24" height="24" viewBox="0 0 24 24">
<title>watch</title>
<path fill="#fff" d="M6 12c0 3.328 2.672 6 6 6s6-2.672 6-6-2.672-6-6-6-6 2.672-6 6zM20.016 12c0 2.531-1.219 4.828-3.047 6.281l-0.984 5.719h-7.969l-0.984-5.719c-1.875-1.453-3.047-3.75-3.047-6.281s1.172-4.828 3.047-6.281l0.984-5.719h7.969l0.984 5.719c1.828 1.453 3.047 3.75 3.047 6.281z"></path>
</svg>
