<!-- Generated by IcoMoon.io -->
<svg version="1.1" xmlns="http://www.w3.org/2000/svg" width="24" height="24" viewBox="0 0 24 24">
<title>local_library</title>
<path fill="#fff" d="M12 8.016c-1.641 0-3-1.359-3-3s1.359-3 3-3 3 1.359 3 3-1.359 3-3 3zM12 11.531c2.344-2.203 5.531-3.516 9-3.516v10.969c-3.469 0-6.656 1.359-9 3.563-2.344-2.203-5.531-3.563-9-3.563v-10.969c3.469 0 6.656 1.313 9 3.516z"></path>
</svg>
