<!-- Generated by IcoMoon.io -->
<svg version="1.1" xmlns="http://www.w3.org/2000/svg" width="26" height="28" viewBox="0 0 26 28">
<title>sort-alpha-desc</title>
<path fill="#fff" d="M18.609 22.375h2.766l-1.125-3.406-0.187-0.734c-0.016-0.125-0.031-0.219-0.031-0.313h-0.063l-0.047 0.313c-0.047 0.187-0.063 0.422-0.172 0.734zM11.5 22.5c0 0.141-0.063 0.266-0.156 0.375l-4.984 4.984c-0.109 0.094-0.234 0.141-0.359 0.141s-0.25-0.047-0.359-0.141l-5-5c-0.141-0.156-0.187-0.359-0.109-0.547s0.266-0.313 0.469-0.313h3v-21.5c0-0.281 0.219-0.5 0.5-0.5h3c0.281 0 0.5 0.219 0.5 0.5v21.5h3c0.281 0 0.5 0.219 0.5 0.5zM25.953 26.344v1.656h-4.5v-1.656h1.172l-0.734-2.25h-3.797l-0.734 2.25h1.172v1.656h-4.484v-1.656h1.094l3.594-10.344h2.531l3.594 10.344h1.094zM24.563 8.359v3.641h-9.125v-1.406l5.766-8.266c0.125-0.187 0.25-0.344 0.328-0.422l0.172-0.141v-0.047c-0.063 0-0.125 0.016-0.219 0.016-0.125 0.031-0.281 0.047-0.469 0.047h-3.625v1.797h-1.875v-3.578h8.859v1.391l-5.766 8.281c-0.094 0.141-0.219 0.281-0.328 0.406l-0.172 0.156v0.047l0.219-0.047c0.141-0.016 0.281-0.016 0.469-0.016h3.875v-1.859h1.891z"></path>
</svg>
