<!-- Generated by IcoMoon.io -->
<svg version="1.1" xmlns="http://www.w3.org/2000/svg" width="24" height="24" viewBox="0 0 24 24">
<title>format_color_reset</title>
<path fill="#fff" d="M5.25 5.25l14.625 14.625-1.266 1.266-2.672-2.625c-1.078 0.938-2.438 1.5-3.938 1.5-3.328 0-6-2.672-6-6 0-1.219 0.563-2.672 1.313-4.125l-3.328-3.328zM18 14.016c0 0.469-0.047 0.891-0.141 1.313l-8.578-8.625c1.406-2.016 2.719-3.516 2.719-3.516s6 6.844 6 10.828z"></path>
</svg>
