<!-- Generated by IcoMoon.io -->
<svg version="1.1" xmlns="http://www.w3.org/2000/svg" width="24" height="24" viewBox="0 0 24 24">
<title>disc_full</title>
<path fill="#fff" d="M9.984 14.016c1.078 0 2.016-0.938 2.016-2.016s-0.938-2.016-2.016-2.016-1.969 0.938-1.969 2.016 0.891 2.016 1.969 2.016zM9.984 3.984c4.406 0 8.016 3.609 8.016 8.016s-3.609 8.016-8.016 8.016-7.969-3.609-7.969-8.016 3.563-8.016 7.969-8.016zM20.016 6.984h1.969v5.016h-1.969v-5.016zM20.016 15.984v-1.969h1.969v1.969h-1.969z"></path>
</svg>
