<!-- Generated by IcoMoon.io -->
<svg version="1.1" xmlns="http://www.w3.org/2000/svg" width="24" height="24" viewBox="0 0 24 24">
<title>looks</title>
<path fill="#fff" d="M12 6c6.047 0 11.016 4.969 11.016 11.016h-2.016c0-4.969-4.031-9-9-9s-9 4.031-9 9h-2.016c0-6.047 4.969-11.016 11.016-11.016zM12 9.984c3.844 0 6.984 3.188 6.984 7.031h-1.969c0-2.766-2.25-5.016-5.016-5.016s-5.016 2.25-5.016 5.016h-1.969c0-3.844 3.141-7.031 6.984-7.031z"></path>
</svg>
