<!-- Generated by IcoMoon.io -->
<svg version="1.1" xmlns="http://www.w3.org/2000/svg" width="24" height="24" viewBox="0 0 24 24">
<title>airline_seat_flat</title>
<path fill="#fff" d="M7.125 12.094c-1.172 1.172-3.047 1.219-4.219 0.047s-1.219-3.047-0.047-4.219 3.047-1.219 4.219-0.047 1.219 3.047 0.047 4.219zM2.016 14.016h19.969v1.969h-6v2.016h-7.969v-2.016h-6v-1.969zM21.984 11.016v1.969h-12.984v-6h9c2.203 0 3.984 1.828 3.984 4.031z"></path>
</svg>
