<!-- Generated by IcoMoon.io -->
<svg version="1.1" xmlns="http://www.w3.org/2000/svg" width="24" height="24" viewBox="0 0 24 24">
<title>hdr_strong</title>
<path fill="#fff" d="M5.016 14.016c1.078 0 1.969-0.938 1.969-2.016s-0.891-2.016-1.969-2.016-2.016 0.938-2.016 2.016 0.938 2.016 2.016 2.016zM5.016 8.016c2.203 0 3.984 1.781 3.984 3.984s-1.781 3.984-3.984 3.984-4.031-1.781-4.031-3.984 1.828-3.984 4.031-3.984zM17.016 6c3.328 0 6 2.672 6 6s-2.672 6-6 6-6-2.672-6-6 2.672-6 6-6z"></path>
</svg>
