<!-- Generated by IcoMoon.io -->
<svg version="1.1" xmlns="http://www.w3.org/2000/svg" width="24" height="24" viewBox="0 0 24 24">
<title>videocam_off</title>
<path fill="#fff" d="M3.281 2.016l17.719 17.719-1.266 1.266-3.188-3.188c-0.141 0.094-0.375 0.188-0.563 0.188h-12c-0.563 0-0.984-0.422-0.984-0.984v-10.031c0-0.563 0.422-0.984 0.984-0.984h0.75l-2.719-2.719zM21 6.516v10.688l-11.203-11.203h6.188c0.563 0 1.031 0.422 1.031 0.984v3.516z"></path>
</svg>
