<!-- Generated by IcoMoon.io -->
<svg version="1.1" xmlns="http://www.w3.org/2000/svg" width="36" height="28" viewBox="0 0 36 28">
<title>free-code-camp</title>
<path fill="#fff" d="M7.078 25.578c0 0.438-0.391 0.844-0.828 0.844-0.063 0-0.141-0.031-0.203-0.047v0c-0.875-0.203-2-1.516-2.531-2.188-2.438-3.078-3.516-6.672-3.516-10.563 0-3.625 1.094-6.734 3.328-9.594 0.516-0.672 2.047-2.438 2.953-2.438 0.391 0 0.797 0.313 0.797 0.719 0 0.469-0.688 1.109-0.984 1.406-0.859 0.891-1.656 1.797-2.297 2.875-1.328 2.219-1.859 4.438-1.859 7.016 0 2.766 0.516 5.266 1.922 7.672 0.594 1.016 1.297 1.859 2.125 2.703 0.328 0.359 1.094 1.062 1.094 1.594zM28.063 23.484c0 0.578-0.391 1.062-1 1.062h-16.891c-0.547 0-1-0.453-1-1 0-0.578 0.391-1.062 1-1.062h16.891c0.547 0 1 0.453 1 1zM24.703 13.937c0 1.312-0.297 2.531-1.047 3.641-0.516 0.766-1.563 1.75-2.391 2.172-0.125 0.078-0.281 0.156-0.422 0.156-0.125 0-0.359-0.141-0.359-0.281 0-0.453 1.906-1.531 1.906-3.625 0-0.688-0.172-1.453-0.547-2.031-0.109-0.156-0.5-0.656-0.719-0.656-0.047 0-0.047 0.031-0.047 0.078 0 0.375 0.234 0.734 0.234 1.125 0 0.5-0.609 0.75-1.031 0.75-0.734 0-1.031-0.516-1.031-1.188 0-0.453 0.047-0.922 0.047-1.375 0-0.328-0.016-0.422-0.156-0.719-0.219-0.422-0.938-1.281-1.453-1.281-0.141 0-0.187 0-0.187 0.141 0 0.219 0.5 0.453 0.5 1.25 0 2.078-2.859 2.453-2.859 4.531 0 0.938 0.125 1.719 0.656 2.5 0.328 0.484 0.688 0.766 1.234 0.984 0.141 0.047 0.281 0.063 0.281 0.234s-0.141 0.25-0.281 0.25c-0.078 0-0.438-0.141-0.516-0.172v0c-2.406-0.875-4.234-2.969-4.234-5.594 0-3.109 3.734-5.828 3.734-8.813 0-0.578-0.094-0.984-0.391-1.469-0.172-0.281-0.594-0.828-0.875-1-0.125-0.063-0.297-0.172-0.297-0.328 0-0.266 0.453-0.313 0.641-0.313 0.562 0 1.203 0.203 1.719 0.453 2.172 1.031 2.625 2.609 3 4.797 0.094 0.516 0.281 2.156 1.031 2.156 0.484 0 0.797-0.328 0.797-0.797 0-0.703-0.625-1.469-0.625-1.859 0-0.109 0.063-0.156 0.156-0.156 0.391 0 1.203 0.828 1.453 1.094 1.516 1.609 2.078 3.172 2.078 5.344zM36 14.391c0 2.75-0.734 5.5-2.156 7.859-0.656 1.094-2.812 4.156-4.234 4.156-0.328 0-0.719-0.406-0.719-0.734 0-0.531 1.828-2.234 2.281-2.812 1.937-2.438 2.859-5.187 2.859-8.297 0-2.562-0.313-4.641-1.453-6.969-0.703-1.437-1.437-2.406-2.547-3.563-0.359-0.375-1.141-1.078-1.141-1.641 0-0.391 0.406-0.812 0.797-0.812 1.031 0 2.516 1.906 3.063 2.641 2.094 2.812 2.984 5.703 3.219 9.172 0.016 0.328 0.031 0.672 0.031 1z"></path>
</svg>
