<!-- Generated by IcoMoon.io -->
<svg version="1.1" xmlns="http://www.w3.org/2000/svg" width="24" height="24" viewBox="0 0 24 24">
<title>airline_seat_legroom_extra</title>
<path fill="#fff" d="M22.828 17.25c0.422 0.75 0.047 1.688-0.703 2.063l-3.703 1.688-3.422-6.984h-6.984c-1.641 0-3-1.359-3-3v-8.016h6v6h3.516c0.75 0 1.453 0.422 1.781 1.125l3.375 6.984 1.125-0.516c0.75-0.328 1.641-0.047 2.016 0.656zM3.984 12c0 1.641 1.359 3 3 3h6v2.016h-6c-2.766 0-4.969-2.25-4.969-5.016v-9h1.969v9z"></path>
</svg>
