<!-- Generated by IcoMoon.io -->
<svg version="1.1" xmlns="http://www.w3.org/2000/svg" width="24" height="28" viewBox="0 0 24 28">
<title>arrow-circle-o-left</title>
<path fill="#fff" d="M18 12.5v3c0 0.266-0.234 0.5-0.5 0.5h-5.5v3c0 0.281-0.219 0.5-0.5 0.5-0.141 0-0.266-0.063-0.375-0.156l-4.984-4.984c-0.094-0.094-0.141-0.234-0.141-0.359s0.047-0.266 0.141-0.359l5-5c0.094-0.094 0.234-0.141 0.359-0.141 0.266 0 0.5 0.234 0.5 0.5v3h5.5c0.266 0 0.5 0.234 0.5 0.5zM20.5 14c0-4.688-3.813-8.5-8.5-8.5s-8.5 3.813-8.5 8.5 3.813 8.5 8.5 8.5 8.5-3.813 8.5-8.5zM24 14c0 6.625-5.375 12-12 12s-12-5.375-12-12 5.375-12 12-12 12 5.375 12 12z"></path>
</svg>
