<!-- Generated by IcoMoon.io -->
<svg version="1.1" xmlns="http://www.w3.org/2000/svg" width="28" height="28" viewBox="0 0 28 28">
<title>industry</title>
<path fill="#fff" d="M7 0c0.547 0 1 0.453 1 1v13.922l8.375-6.703c0.172-0.141 0.406-0.219 0.625-0.219 0.547 0 1 0.453 1 1v5.922l8.375-6.703c0.172-0.141 0.406-0.219 0.625-0.219 0.547 0 1 0.453 1 1v18c0 0.547-0.453 1-1 1h-26c-0.547 0-1-0.453-1-1v-26c0-0.547 0.453-1 1-1h6z"></path>
</svg>
