<!-- Generated by IcoMoon.io -->
<svg version="1.1" xmlns="http://www.w3.org/2000/svg" width="24" height="28" viewBox="0 0 24 28">
<title>stumbleupon-circle</title>
<path fill="#fff" d="M13.531 13.109l1.406-0.422v-0.969c0-1.656-1.406-2.984-3.063-2.984s-3.063 1.313-3.063 2.969v4.422c0 0.406-0.328 0.734-0.734 0.734s-0.719-0.328-0.719-0.734v-1.875h-2.359v1.906c0 1.703 1.375 3.063 3.078 3.063 1.672 0 3.063-1.344 3.063-3.016v-4.375c0-0.406 0.328-0.734 0.734-0.734 0.391 0 0.719 0.328 0.719 0.734v0.844zM18.734 16.156v-1.906h-2.344v1.969c0 0.406-0.328 0.734-0.734 0.734-0.391 0-0.719-0.328-0.719-0.734v-1.922l-1.406 0.406-0.938-0.438v1.922c0 1.672 1.391 3.031 3.078 3.031s3.063-1.359 3.063-3.063zM24 14c0 6.625-5.375 12-12 12s-12-5.375-12-12 5.375-12 12-12 12 5.375 12 12z"></path>
</svg>
