<!-- Generated by IcoMoon.io -->
<svg version="1.1" xmlns="http://www.w3.org/2000/svg" width="24" height="24" viewBox="0 0 24 24">
<title>tablet_android</title>
<path fill="#fff" d="M19.266 18.984v-15.984h-14.531v15.984h14.531zM14.016 21.984v-0.984h-4.031v0.984h4.031zM18 0c1.641 0 3 1.359 3 3v18c0 1.641-1.359 3-3 3h-12c-1.641 0-3-1.359-3-3v-18c0-1.641 1.359-3 3-3h12z"></path>
</svg>
