<!-- Generated by IcoMoon.io -->
<svg version="1.1" xmlns="http://www.w3.org/2000/svg" width="24" height="24" viewBox="0 0 24 24">
<title>crop</title>
<path fill="#333" d="M6.984 17.016h16.031v1.969h-4.031v4.031h-1.969v-4.031h-10.031c-1.078 0-1.969-0.891-1.969-1.969v-10.031h-4.031v-1.969h4.031v-4.031h1.969v16.031zM17.016 15v-8.016h-8.016v-1.969h8.016c1.078 0 1.969 0.891 1.969 1.969v8.016h-1.969z"></path>
</svg>
