<!-- Generated by IcoMoon.io -->
<svg version="1.1" xmlns="http://www.w3.org/2000/svg" width="24" height="24" viewBox="0 0 24 24">
<title>bluetooth_disabled</title>
<path fill="#333" d="M12.984 18.188l1.875-1.875-1.875-1.922v3.797zM5.391 3.984l14.625 14.625-1.406 1.406-2.297-2.297-4.313 4.266h-0.984v-7.594l-4.594 4.594-1.406-1.406 5.578-5.578-6.609-6.609zM12.984 5.813v3.234l-1.969-2.016v-5.016h0.984l5.719 5.672-3.047 3.047-1.406-1.406 1.594-1.641z"></path>
</svg>
