<!-- Generated by IcoMoon.io -->
<svg version="1.1" xmlns="http://www.w3.org/2000/svg" width="24" height="24" viewBox="0 0 24 24">
<title>dock</title>
<path fill="#333" d="M15.984 15v-9.984h-7.969v9.984h7.969zM15.984 1.031c1.078 0 2.016 0.891 2.016 1.969v14.016c0 1.078-0.938 1.969-2.016 1.969h-7.969c-1.078 0-2.016-0.891-2.016-1.969v-14.016c0-1.078 0.938-2.016 2.016-2.016zM8.016 23.016v-2.016h7.969v2.016h-7.969z"></path>
</svg>
