<!-- Generated by IcoMoon.io -->
<svg version="1.1" xmlns="http://www.w3.org/2000/svg" width="24" height="24" viewBox="0 0 24 24">
<title>nature</title>
<path fill="#333" d="M12.984 16.125v3.891h6v1.969h-13.969v-1.969h6v-3.938c-3.328-0.563-5.859-3.422-5.859-6.891 0-3.891 3.141-7.031 7.031-7.031s6.984 3.141 6.984 7.031c0 3.609-2.719 6.516-6.188 6.938z"></path>
</svg>
