<!-- Generated by IcoMoon.io -->
<svg version="1.1" xmlns="http://www.w3.org/2000/svg" width="24" height="24" viewBox="0 0 24 24">
<title>colorize</title>
<path fill="#333" d="M6.938 18.984l8.063-8.063-1.922-1.922-8.063 8.063zM20.719 5.625c0.375 0.375 0.422 0.984 0 1.406l-3.141 3.141 1.922 1.922-1.406 1.406-1.406-1.406-8.953 8.906h-4.734v-4.734l8.906-8.953-1.406-1.406 1.406-1.406 1.922 1.922 3.141-3.141c0.375-0.375 1.031-0.375 1.406 0z"></path>
</svg>
