<!-- Generated by IcoMoon.io -->
<svg version="1.1" xmlns="http://www.w3.org/2000/svg" width="24" height="24" viewBox="0 0 24 24">
<title>publish</title>
<path fill="#333" d="M5.016 14.016l6.984-7.031 6.984 7.031h-3.984v6h-6v-6h-3.984zM5.016 3.984h13.969v2.016h-13.969v-2.016z"></path>
</svg>
