<!-- Generated by IcoMoon.io -->
<svg version="1.1" xmlns="http://www.w3.org/2000/svg" width="24" height="24" viewBox="0 0 24 24">
<title>save</title>
<path fill="#333" d="M15 9v-3.984h-9.984v3.984h9.984zM12 18.984c1.641 0 3-1.359 3-3s-1.359-3-3-3-3 1.359-3 3 1.359 3 3 3zM17.016 3l3.984 3.984v12c0 1.078-0.938 2.016-2.016 2.016h-13.969c-1.125 0-2.016-0.938-2.016-2.016v-13.969c0-1.078 0.891-2.016 2.016-2.016h12z"></path>
</svg>
