<!-- Generated by IcoMoon.io -->
<svg version="1.1" xmlns="http://www.w3.org/2000/svg" width="24" height="24" viewBox="0 0 24 24">
<title>wrap_text</title>
<path fill="#333" d="M17.016 11.016c2.203 0 3.984 1.781 3.984 3.984s-1.781 3.984-3.984 3.984h-2.016v2.016l-3-3 3-3v2.016h2.25c1.078 0 2.016-0.938 2.016-2.016s-0.938-2.016-2.016-2.016h-13.266v-1.969h13.031zM20.016 5.016v1.969h-16.031v-1.969h16.031zM3.984 18.984v-1.969h6v1.969h-6z"></path>
</svg>
