<!-- Generated by IcoMoon.io -->
<svg version="1.1" xmlns="http://www.w3.org/2000/svg" width="24" height="28" viewBox="0 0 24 28">
<title>file-powerpoint-o</title>
<path fill="#333" d="M22.937 5.938c0.578 0.578 1.062 1.734 1.062 2.562v18c0 0.828-0.672 1.5-1.5 1.5h-21c-0.828 0-1.5-0.672-1.5-1.5v-25c0-0.828 0.672-1.5 1.5-1.5h14c0.828 0 1.984 0.484 2.562 1.062zM16 2.125v5.875h5.875c-0.094-0.266-0.234-0.531-0.344-0.641l-4.891-4.891c-0.109-0.109-0.375-0.25-0.641-0.344zM22 26v-16h-6.5c-0.828 0-1.5-0.672-1.5-1.5v-6.5h-12v24h20zM6.5 22.344v1.656h5.109v-1.656h-1.453v-2.609h2.141c0.672 0 1.281-0.031 1.844-0.234 1.406-0.484 2.281-1.937 2.281-3.641s-0.844-3.016-2.141-3.563c-0.594-0.234-1.313-0.297-2.031-0.297h-5.75v1.672h1.437v8.672h-1.437zM12.016 17.969h-1.859v-4.188h1.875c0.547 0 0.969 0.094 1.297 0.281 0.562 0.328 0.875 0.969 0.875 1.797 0 0.875-0.313 1.547-0.969 1.875-0.328 0.156-0.734 0.234-1.219 0.234z"></path>
</svg>
