<!-- Generated by IcoMoon.io -->
<svg version="1.1" xmlns="http://www.w3.org/2000/svg" width="24" height="28" viewBox="0 0 24 28">
<title>y-combinator</title>
<path fill="#333" d="M12.641 15.687l4.156-7.797h-1.75l-2.453 4.875s-0.375 0.75-0.688 1.437c-0.297-0.719-0.656-1.437-0.656-1.437l-2.422-4.875h-1.875l4.109 7.703v5.063h1.578v-4.969zM24 2v24h-24v-24h24z"></path>
</svg>
