<!-- Generated by IcoMoon.io -->
<svg version="1.1" xmlns="http://www.w3.org/2000/svg" width="26" height="28" viewBox="0 0 26 28">
<title>magic</title>
<path fill="#333" d="M18.594 9.078l4.578-4.578-1.672-1.672-4.578 4.578zM25.578 4.5c0 0.266-0.094 0.516-0.281 0.703l-20.094 20.094c-0.187 0.187-0.438 0.281-0.703 0.281s-0.516-0.094-0.703-0.281l-3.094-3.094c-0.187-0.187-0.281-0.438-0.281-0.703s0.094-0.516 0.281-0.703l20.094-20.094c0.187-0.187 0.438-0.281 0.703-0.281s0.516 0.094 0.703 0.281l3.094 3.094c0.187 0.187 0.281 0.438 0.281 0.703zM4.469 1.531l1.531 0.469-1.531 0.469-0.469 1.531-0.469-1.531-1.531-0.469 1.531-0.469 0.469-1.531zM9.938 4.062l3.063 0.938-3.063 0.938-0.938 3.063-0.938-3.063-3.063-0.938 3.063-0.938 0.938-3.063zM24.469 11.531l1.531 0.469-1.531 0.469-0.469 1.531-0.469-1.531-1.531-0.469 1.531-0.469 0.469-1.531zM14.469 1.531l1.531 0.469-1.531 0.469-0.469 1.531-0.469-1.531-1.531-0.469 1.531-0.469 0.469-1.531z"></path>
</svg>
