<!-- Generated by IcoMoon.io -->
<svg version="1.1" xmlns="http://www.w3.org/2000/svg" width="14" height="28" viewBox="0 0 14 28">
<title>i-cursor</title>
<path fill="#333" d="M13 2c-3.313 0-5 1.172-5 3.5v6.5h2v2h-2v8.5c0 2.328 1.687 3.5 5 3.5h1v2h-1c-2.812 0-4.875-0.812-6-2.281-1.125 1.469-3.187 2.281-6 2.281h-1v-2h1c3.313 0 5-1.172 5-3.5v-8.5h-2v-2h2v-6.5c0-2.328-1.687-3.5-5-3.5h-1v-2h1c2.812 0 4.875 0.812 6 2.281 1.125-1.469 3.187-2.281 6-2.281h1v2h-1z"></path>
</svg>
