<!-- Generated by IcoMoon.io -->
<svg version="1.1" xmlns="http://www.w3.org/2000/svg" width="24" height="24" viewBox="0 0 24 24">
<title>stop</title>
<path fill="#333" d="M6 6h12v12h-12v-12z"></path>
</svg>
