<!-- Generated by IcoMoon.io -->
<svg version="1.1" xmlns="http://www.w3.org/2000/svg" width="24" height="24" viewBox="0 0 24 24">
<title>flight_land</title>
<path fill="#333" d="M14.016 14.438c-3.199-0.88-6.424-1.732-9.656-2.578l-1.594-0.469v-5.156l1.453 0.375 0.938 2.344 4.969 1.313v-8.25l1.922 0.516 2.766 9 5.297 1.406c0.797 0.234 1.266 1.078 1.078 1.875-0.234 0.797-1.031 1.219-1.828 1.031zM2.484 18.984h19.031v2.016h-19.031v-2.016z"></path>
</svg>
