<!-- Generated by IcoMoon.io -->
<svg version="1.1" xmlns="http://www.w3.org/2000/svg" width="24" height="24" viewBox="0 0 24 24">
<title>screen_share</title>
<path fill="#333" d="M12.984 14.484l4.031-3.75-4.031-3.75v2.156c-3.891 0.563-5.438 3.188-6 5.859 1.406-1.875 3.234-2.719 6-2.719v2.203zM20.016 18h3.984v2.016h-24v-2.016h3.984c-1.125 0-1.969-0.938-1.969-2.016v-9.984c0-1.125 0.844-2.016 1.969-2.016h16.031c1.078 0 1.969 0.891 1.969 2.016v9.984c0 1.078-0.891 2.016-1.969 2.016z"></path>
</svg>
