<!-- Generated by IcoMoon.io -->
<svg version="1.1" xmlns="http://www.w3.org/2000/svg" width="32" height="28" viewBox="0 0 32 28">
<title>gg</title>
<path fill="#333" d="M11.5 12.5l6 6-6 6-10.5-10.5 10.5-10.5 2.625 2.625-1.5 1.5-1.125-1.125-7.5 7.5 7.5 7.5 3.016-3.016-4.516-4.484zM20.5 3.5l10.5 10.5-10.5 10.5-2.625-2.625 1.5-1.5 1.125 1.125 7.5-7.5-7.5-7.5-3.016 3.016 4.516 4.484-1.5 1.5-6-6z"></path>
</svg>
