<!-- Generated by IcoMoon.io -->
<svg version="1.1" xmlns="http://www.w3.org/2000/svg" width="24" height="24" viewBox="0 0 24 24">
<title>view_carousel</title>
<path fill="#333" d="M18 6h3.984v11.016h-3.984v-11.016zM2.016 17.016v-11.016h3.984v11.016h-3.984zM6.984 18.984v-15h10.031v15h-10.031z"></path>
</svg>
