<!-- Generated by IcoMoon.io -->
<svg version="1.1" xmlns="http://www.w3.org/2000/svg" width="24" height="24" viewBox="0 0 24 24">
<title>volume_down</title>
<path fill="#333" d="M5.016 9h3.984l5.016-5.016v16.031l-5.016-5.016h-3.984v-6zM18.516 12c0 1.781-1.031 3.281-2.531 4.031v-8.063c1.5 0.75 2.531 2.25 2.531 4.031z"></path>
</svg>
