<!-- Generated by IcoMoon.io -->
<svg version="1.1" xmlns="http://www.w3.org/2000/svg" width="24" height="24" viewBox="0 0 24 24">
<title>low_priority</title>
<path fill="#333" d="M2.016 11.484c0-3.563 2.906-6.469 6.469-6.469h3.516v1.969h-3.516c-2.484 0-4.5 2.016-4.5 4.5s2.016 4.5 4.5 4.5h0.516v-1.969l3 3-3 3v-2.016h-0.516c-3.563 0-6.469-2.953-6.469-6.516zM14.016 15.984h7.969v2.016h-7.969v-2.016zM14.016 10.5h7.969v2.016h-7.969v-2.016zM14.016 5.016h7.969v1.969h-7.969v-1.969z"></path>
</svg>
