<!-- Generated by IcoMoon.io -->
<svg version="1.1" xmlns="http://www.w3.org/2000/svg" width="24" height="24" viewBox="0 0 24 24">
<title>redo</title>
<path fill="#333" d="M18.422 10.594l3.563-3.609v9h-9l3.656-3.609c-1.406-1.172-3.188-1.875-5.156-1.875-3.563 0-6.563 2.297-7.594 5.484l-2.344-0.75c1.359-4.172 5.297-7.219 9.938-7.219 2.672 0 5.109 0.984 6.938 2.578z"></path>
</svg>
