<!-- Generated by IcoMoon.io -->
<svg version="1.1" xmlns="http://www.w3.org/2000/svg" width="24" height="24" viewBox="0 0 24 24">
<title>system_update_alt</title>
<path fill="#333" d="M21 3.516c1.078 0 2.016 0.891 2.016 1.969v14.016c0 1.078-0.938 2.016-2.016 2.016h-18c-1.078 0-2.016-0.938-2.016-2.016v-14.016c0-1.078 0.938-1.969 2.016-1.969h6v1.969h-6v14.016h18v-14.016h-6v-1.969h6zM12 16.5l-3.984-3.984h3v-9h1.969v9h3z"></path>
</svg>
