<!-- Generated by IcoMoon.io -->
<svg version="1.1" xmlns="http://www.w3.org/2000/svg" width="28" height="28" viewBox="0 0 28 28">
<title>header</title>
<path fill="#333" d="M26.281 26c-1.375 0-2.766-0.109-4.156-0.109-1.375 0-2.75 0.109-4.125 0.109-0.531 0-0.781-0.578-0.781-1.031 0-1.391 1.563-0.797 2.375-1.328 0.516-0.328 0.516-1.641 0.516-2.188l-0.016-6.109c0-0.172 0-0.328-0.016-0.484-0.25-0.078-0.531-0.063-0.781-0.063h-10.547c-0.266 0-0.547-0.016-0.797 0.063-0.016 0.156-0.016 0.313-0.016 0.484l-0.016 5.797c0 0.594 0 2.219 0.578 2.562 0.812 0.5 2.656-0.203 2.656 1.203 0 0.469-0.219 1.094-0.766 1.094-1.453 0-2.906-0.109-4.344-0.109-1.328 0-2.656 0.109-3.984 0.109-0.516 0-0.75-0.594-0.75-1.031 0-1.359 1.437-0.797 2.203-1.328 0.5-0.344 0.516-1.687 0.516-2.234l-0.016-0.891v-12.703c0-0.75 0.109-3.156-0.594-3.578-0.781-0.484-2.453 0.266-2.453-1.141 0-0.453 0.203-1.094 0.75-1.094 1.437 0 2.891 0.109 4.328 0.109 1.313 0 2.641-0.109 3.953-0.109 0.562 0 0.781 0.625 0.781 1.094 0 1.344-1.547 0.688-2.312 1.172-0.547 0.328-0.547 1.937-0.547 2.5l0.016 5c0 0.172 0 0.328 0.016 0.5 0.203 0.047 0.406 0.047 0.609 0.047h10.922c0.187 0 0.391 0 0.594-0.047 0.016-0.172 0.016-0.328 0.016-0.5l0.016-5c0-0.578 0-2.172-0.547-2.5-0.781-0.469-2.344 0.156-2.344-1.172 0-0.469 0.219-1.094 0.781-1.094 1.375 0 2.75 0.109 4.125 0.109 1.344 0 2.688-0.109 4.031-0.109 0.562 0 0.781 0.625 0.781 1.094 0 1.359-1.609 0.672-2.391 1.156-0.531 0.344-0.547 1.953-0.547 2.516l0.016 14.734c0 0.516 0.031 1.875 0.531 2.188 0.797 0.5 2.484-0.141 2.484 1.219 0 0.453-0.203 1.094-0.75 1.094z"></path>
</svg>
