<!-- Generated by IcoMoon.io -->
<svg version="1.1" xmlns="http://www.w3.org/2000/svg" width="24" height="24" viewBox="0 0 24 24">
<title>switch_camera</title>
<path fill="#333" d="M15 15.516l3.516-3.516-3.516-3.516v2.531h-6v-2.531l-3.516 3.516 3.516 3.516v-2.531h6v2.531zM20.016 3.984c1.078 0 1.969 0.938 1.969 2.016v12c0 1.078-0.891 2.016-1.969 2.016h-16.031c-1.078 0-1.969-0.938-1.969-2.016v-12c0-1.078 0.891-2.016 1.969-2.016h3.188l1.828-1.969h6l1.828 1.969h3.188z"></path>
</svg>
