<!-- Generated by IcoMoon.io -->
<svg version="1.1" xmlns="http://www.w3.org/2000/svg" width="28" height="28" viewBox="0 0 28 28">
<title>plug</title>
<path fill="#333" d="M27.422 7.078c0.766 0.781 0.766 2.047 0 2.828l-6.266 6.25 2.344 2.344-2.5 2.5c-3.422 3.422-8.641 3.906-12.516 1.344l-5.656 5.656h-2.828v-2.828l5.656-5.656c-2.562-3.875-2.078-9.094 1.344-12.516l2.5-2.5 2.344 2.344 6.25-6.266c0.781-0.766 2.047-0.766 2.828 0 0.781 0.781 0.781 2.063 0 2.828l-6.25 6.266 3.656 3.656 6.266-6.25c0.781-0.781 2.047-0.781 2.828 0z"></path>
</svg>
